Analysis 2: Predictive Modeling for House Prices
…
[1] "Top variables by |correlation| with SalePrice:"

Code

print(cor_df, n = 10)

# A tibble: 30 × 3
   Variable     Correlation Abs_Correlation
   <chr>              <dbl>           <dbl>
 1 SalePrice          1               1    
 2 GrLivArea          0.709           0.709
 3 GarageArea         0.623           0.623
 4 TotalBsmtSF        0.614           0.614
 5 X1stFlrSF          0.606           0.606
 6 FullBath           0.561           0.561
 7 TotRmsAbvGrd       0.534           0.534
 8 YearBuilt          0.523           0.523
 9 MasVnrArea         0.473           0.473
10 Fireplaces         0.467           0.467
# ℹ 20 more rows
…
